…
city_OR
```

    ## # A tibble: 47 × 5
    ##    city_state      conf.low conf.high    OR victim_sexMale
    ##    <chr>              <dbl>     <dbl> <dbl>          <dbl>
    ##  1 Albuquerque, NM    0.773     1.03  0.894        -0.112 
    ##  2 Atlanta, GA        0.807     0.957 0.879        -0.129 
    ##  3 Baltimore, MD      0.733     0.833 0.781        -0.247 
    ##  4 Baton Rouge, LA    0.691     0.899 0.788        -0.238 
    ##  5 Birmingham, AL     0.841     1.02  0.927        -0.0757
    ##  6 Boston, MA         0.806     1.06  0.924        -0.0786
    ##  7 Buffalo, NY        0.724     0.946 0.828        -0.189 
    ##  8 Charlotte, NC      0.803     0.938 0.868        -0.142 
    ##  9 Chicago, IL        0.764     0.836 0.800        -0.224 
    ## 10 Cincinnati, OH     0.691     0.855 0.769        -0.263 
    ## # ℹ 37 more rows
…
